{
    "apiVersion": "v1",
    "kind": "Service",
    "metadata": {
        "name": "mongodb-svc",
        "labels": {
            "version": "v1",
            "app": "mongodb"
        }
    },
    "spec": {
        "selector": {
            "app": "api-node"
        },
        "type": "NodePort",
        "ports": [
            {
                "protocol": "TCP",
                "port": 27017
            }
        ]
    }
}